実践編；線形モデルの展開
…
  # 統計量の計算
  summarise(EAP=mean(val),
            U95=quantile(val,prob=0.975),
            L95=quantile(val,prob=0.025)) %>% ungroup %>% 
  # 元データの予測値と合わせる
  mutate(AT=df3$AT.Bat,HR=df3$HR) %>% print %>% 
  # key列を除外
  dplyr::select(-key) %>% 
  # 作図用に改めて縦長に作り直し
  tidyr::gather(type,val,-AT,-HR,factor_key=T) %>% 
  # 作図
  ggplot(aes(x=AT,y=val,color=type)) + geom_point() +  
  geom_point(aes(x=AT,y=HR),color="Black")

## # A tibble: 906,000 x 2
## # Groups:   key [302]
##    key      val
##    <fct>  <dbl>
##  1 pred.1     0
##  2 pred.1     0
##  3 pred.1     1
##  4 pred.1     2
##  5 pred.1     0
##  6 pred.1     0
##  7 pred.1     1
##  8 pred.1     2
##  9 pred.1     2
## 10 pred.1     1
## # ... with 905,990 more rows
## # A tibble: 302 x 6
##    key        EAP   U95   L95    AT    HR
##    <fct>    <dbl> <dbl> <dbl> <dbl> <int>
##  1 pred.1   0.871     3     0   1       0
##  2 pred.2  25.0      35    16  52.9     9
##  3 pred.3   0.826     3     0   0.4     0
##  4 pred.4   3.33      7     0  21.8     4
##  5 pred.5   1.13      4     0   5.1     0
##  6 pred.6  11.6      19     5  41      29
##  7 pred.7   0.859     3     0   0.8     0
##  8 pred.8   1.52      4     0   9.7     3
##  9 pred.9   5.02     10     1  28.3    12
## 10 pred.10  1.44      4     0   8.7     1
## # ... with 292 more rows
…
  # 統計量の計算
  summarise(EAP=mean(val),
            U95=quantile(val,prob=0.975),
            L95=quantile(val,prob=0.025)) %>% ungroup %>% 
  # 元データの予測値と合わせる
  mutate(AT=df3$AT.Bat,HR=df3$HR) %>% print %>% 
  # key列を除外
  dplyr::select(-key) %>% 
  # 作図用に改めて縦長に作り直し
  tidyr::gather(type,val,-AT,-HR,factor_key=T) %>% 
  # 作図
  ggplot(aes(x=AT,y=val,color=type)) + geom_point() +  
  geom_point(aes(x=AT,y=HR),color="Black")

## # A tibble: 1,208,000 x 2
## # Groups:   key [302]
##    key      val
##    <fct>  <dbl>
##  1 pred.1     0
##  2 pred.1     1
##  3 pred.1     2
##  4 pred.1     0
##  5 pred.1     2
##  6 pred.1     0
##  7 pred.1     0
##  8 pred.1     1
##  9 pred.1     1
## 10 pred.1     0
## # ... with 1,207,990 more rows
## # A tibble: 302 x 6
##    key        EAP   U95   L95    AT    HR
##    <fct>    <dbl> <dbl> <dbl> <dbl> <int>
##  1 pred.1   0.401     2     0   1       0
##  2 pred.2  10.4      20     3  52.9     9
##  3 pred.3   0.385     2     0   0.4     0
##  4 pred.4   3.6       9     0  21.8     4
##  5 pred.5   0.503     3     0   5.1     0
##  6 pred.6  27.7      43    15  41      29
##  7 pred.7   0.395     2     0   0.8     0
##  8 pred.8   2.02      6     0   9.7     3
##  9 pred.9  10.7      21     3  28.3    12
## 10 pred.10  0.944     4     0   8.7     1
## # ... with 292 more rows
…
